<svg viewBox="0 0 40 40" fill="none"
  xmlns="http://www.w3.org/2000/svg">
  <path fill-rule="evenodd" clip-rule="evenodd" d="M6 0H34C37.3137 0 40 2.68629 40 6V34C40 37.3137 37.3137 40 34 40H6C2.68629 40 0 37.3137 0 34V6C0 2.68629 2.68629 0 6 0ZM29.9817 16.6889C29.9817 18.5837 28.8607 19.5262 27.6007 19.8536C29.1087 20.3 30.2 21.5202 30.2 23.4547V27.0063H24.446V23.6333C24.446 22.6016 23.8309 22.1849 22.7793 22.1849H15.9539V27.0063H10.2V12.8H23.8706C27.3031 12.8 29.9817 13.5341 29.9817 16.6889ZM15.9539 18.3555H22.8785C23.6325 18.3555 24.0888 18.2563 24.0888 17.6611C24.0888 17.0659 23.6325 16.9667 22.8785 16.9667H15.9539V18.3555Z" fill="currentColor"/>
</svg>
